Tim’s Fisheries Analysis
…
salmon_clean <- us_landings %>% 
  clean_names() %>% # Make column headers snake_case
  mutate(
    afs_name = str_to_lower(afs_name)
  ) %>% # Converts character columns to lowercase
  mutate(dollars_num = parse_number(dollars_usd)) %>% # Just keep numbers from $ column
  filter(str_detect(afs_name, pattern = "salmon")) %>% # Only keep entries w/"salmon"
  separate(afs_name, into = c("group", "subgroup"), sep = ", ") %>% # Note comma-space
  drop_na(dollars_num) # Drop (listwise deletion) any observations with NA for dollars_num

salmon_clean

## # A tibble: 1,275 x 7
##     year state      group  subgroup landings_pounds dollars_usd     dollars_num
##    <dbl> <chr>      <chr>  <chr>              <dbl> <chr>                 <dbl>
##  1  2017 ALASKA     salmon chinook          3268611 $17,344,238.00     17344238
##  2  2017 ALASKA     salmon chum           163438090 $103,445,630.00   103445630
##  3  2017 ALASKA     salmon coho            32959682 $38,090,201.00     38090201
##  4  2017 ALASKA     salmon pink           494750093 $163,414,671.00   163414671
##  5  2017 ALASKA     salmon sockeye        291477932 $323,392,540.00   323392540
##  6  2017 CALIFORNIA salmon chinook           571217 $4,791,257.00       4791257
##  7  2017 MICHIGAN   salmon chinook           171859 $280,136.00          280136
##  8  2017 MICHIGAN   salmon coho                8779 $5,000.00              5000
##  9  2017 OREGON     salmon chinook           957466 $5,066,612.00       5066612
## 10  2017 OREGON     salmon chum                  NA $5.00                     5
## # … with 1,265 more rows
…
